classifier,dataset,frequency,iteration,step_size,reg_param,mini_batch_fraction,accuracy
spark-multiclass,books-multiclass,2,1000,0.5,0.0,0.5,383092,1943,0.254
spark-multiclass,books-multiclass,2,1000,0.5,0.002,0.5,417221,1377,0.254
spark-multiclass,books-multiclass,2,1000,0.5,0.005,0.5,396142,1308,0.255
spark-multiclass,books-multiclass,2,1000,0.5,0.01,0.5,409941,1300,0.255
spark-multiclass,books-multiclass,2,1000,0.5,0.02,0.5,407028,1411,0.2555
spark-multiclass,books-multiclass,2,1000,1.0,0.0,0.5,420054,1333,0.2565
spark-multiclass,books-multiclass,2,1000,1.0,0.002,0.5,393881,1532,0.255
spark-multiclass,books-multiclass,2,1000,1.0,0.005,0.5,396418,1202,0.2555
spark-multiclass,books-multiclass,2,1000,1.0,0.01,0.5,358405,1209,0.255
spark-multiclass,books-multiclass,2,1000,1.0,0.02,0.5,370880,1171,0.2545
spark-multiclass,books-multiclass,2,1000,3.0,0.0,0.5,364680,1482,0.2605
spark-multiclass,books-multiclass,2,1000,3.0,0.002,0.5,371774,1468,0.261
spark-multiclass,books-multiclass,2,1000,3.0,0.005,0.5,358565,1455,0.26
spark-multiclass,books-multiclass,2,1000,3.0,0.01,0.5,370138,1073,0.261
spark-multiclass,books-multiclass,2,1000,3.0,0.02,0.5,343213,1045,0.257
spark-multiclass,books-multiclass,2,1000,5.0,0.0,0.5,362804,1189,0.265
spark-multiclass,books-multiclass,2,1000,5.0,0.002,0.5,371391,1248,0.2625
spark-multiclass,books-multiclass,2,1000,5.0,0.005,0.5,355793,1456,0.264
spark-multiclass,books-multiclass,2,1000,5.0,0.01,0.5,373085,1196,0.2615
spark-multiclass,books-multiclass,2,1000,5.0,0.02,0.5,346471,1184,0.257
spark-multiclass,books-multiclass,2,1000,10.0,0.0,0.5,373911,1482,0.281
spark-multiclass,books-multiclass,2,1000,10.0,0.002,0.5,345497,1338,0.273
spark-multiclass,books-multiclass,2,1000,10.0,0.005,0.5,369511,1323,0.2625
spark-multiclass,books-multiclass,2,1000,10.0,0.01,0.5,345357,1514,0.262
spark-multiclass,books-multiclass,2,1000,10.0,0.02,0.5,360606,1000,0.2585
spark-multiclass,books-multiclass,2,3000,0.5,0.0,0.5,978871,1017,0.255
spark-multiclass,books-multiclass,2,3000,0.5,0.002,0.5,1015914,1381,0.253
spark-multiclass,books-multiclass,2,3000,0.5,0.005,0.5,1006401,1116,0.2535
spark-multiclass,books-multiclass,2,3000,0.5,0.01,0.5,980561,1290,0.2545
spark-multiclass,books-multiclass,2,3000,0.5,0.02,0.5,995817,1196,0.2565
spark-multiclass,books-multiclass,2,3000,1.0,0.0,0.5,988032,1147,0.2615
spark-multiclass,books-multiclass,2,3000,1.0,0.002,0.5,989370,1562,0.26
spark-multiclass,books-multiclass,2,3000,1.0,0.005,0.5,987983,1079,0.2605
spark-multiclass,books-multiclass,2,3000,1.0,0.01,0.5,998114,1087,0.2585
spark-multiclass,books-multiclass,2,3000,1.0,0.02,0.5,1029757,1061,0.2565
spark-multiclass,books-multiclass,2,3000,3.0,0.0,0.5,1094053,1174,0.2675
spark-multiclass,books-multiclass,2,3000,3.0,0.002,0.5,1108706,1418,0.264
spark-multiclass,books-multiclass,2,3000,3.0,0.005,0.5,1089161,1155,0.265
spark-multiclass,books-multiclass,2,3000,3.0,0.01,0.5,1118231,1277,0.261
spark-multiclass,books-multiclass,2,3000,3.0,0.02,0.5,1124103,1451,0.2565
spark-multiclass,books-multiclass,2,3000,5.0,0.0,0.5,1121624,1231,0.2755
spark-multiclass,books-multiclass,2,3000,5.0,0.002,0.5,1121849,1180,0.2705
spark-multiclass,books-multiclass,2,3000,5.0,0.005,0.5,1110258,1482,0.264
spark-multiclass,books-multiclass,2,3000,5.0,0.01,0.5,1104600,1331,0.2605
spark-multiclass,books-multiclass,2,3000,5.0,0.02,0.5,1134778,1240,0.256
spark-multiclass,books-multiclass,2,3000,10.0,0.0,0.5,1085980,1216,0.279
spark-multiclass,books-multiclass,2,3000,10.0,0.002,0.5,1133040,1127,0.2765
spark-multiclass,books-multiclass,2,3000,10.0,0.005,0.5,1134756,1207,0.265
spark-multiclass,books-multiclass,2,3000,10.0,0.01,0.5,1117729,1237,0.261
spark-multiclass,books-multiclass,2,3000,10.0,0.02,0.5,1105937,1290,0.2555
spark-multiclass,books-multiclass,2,5000,0.5,0.005,0.5,1802688,1445,0.256
spark-multiclass,books-multiclass,2,5000,0.5,0.01,0.5,1762237,1302,0.256
spark-multiclass,books-multiclass,2,5000,0.5,0.02,0.5,1690233,1207,0.2555
spark-multiclass,books-multiclass,2,5000,1.0,0.0,0.5,1673329,1171,0.259
spark-multiclass,books-multiclass,2,5000,1.0,0.002,0.5,1703907,1445,0.2605
spark-multiclass,books-multiclass,2,5000,1.0,0.005,0.5,1775468,885,0.259
spark-multiclass,books-multiclass,2,5000,1.0,0.01,0.5,1659836,1191,0.2595
spark-multiclass,books-multiclass,2,5000,1.0,0.02,0.5,1680511,1227,0.257
spark-multiclass,books-multiclass,2,5000,3.0,0.0,0.5,1710831,1253,0.273
spark-multiclass,books-multiclass,2,5000,3.0,0.002,0.5,1680238,1366,0.2655
spark-multiclass,books-multiclass,2,5000,3.0,0.005,0.5,1692902,1486,0.265
spark-multiclass,books-multiclass,2,5000,3.0,0.01,0.5,1635910,1109,0.261
spark-multiclass,books-multiclass,2,5000,3.0,0.02,0.5,1693978,1160,0.257
spark-multiclass,books-multiclass,2,5000,5.0,0.0,0.5,1700267,1327,0.2835
spark-multiclass,books-multiclass,2,5000,5.0,0.002,0.5,1723586,1195,0.271
spark-multiclass,books-multiclass,2,5000,5.0,0.005,0.5,1787336,1355,0.265
spark-multiclass,books-multiclass,2,5000,5.0,0.01,0.5,1791487,1189,0.262
spark-multiclass,books-multiclass,2,5000,5.0,0.02,0.5,1724628,1123,0.257
spark-multiclass,books-multiclass,2,5000,10.0,0.0,0.5,1813095,1292,0.28
spark-multiclass,books-multiclass,2,5000,10.0,0.002,0.5,1753381,1223,0.2745
spark-multiclass,books-multiclass,2,5000,10.0,0.005,0.5,1721237,997,0.2655
spark-multiclass,books-multiclass,2,5000,10.0,0.01,0.5,1763641,1148,0.2625
